…
```
# A tibble: 27 x 2
   chr   total_size
   <chr>      <dbl>
 1 0           163.
 2 1           967.
 3 10          541.
 4 11          611.
 5 12          542.
 6 13          364.
 7 14          375.
 8 15          372.
 9 16          434.
10 17          443.
# … with 17 more rows
```
…
