…
dat <- tibble(
  x_1 = X[, 1],
  x_2 = X[, 2],
  treatment = as.numeric(- 0.5 + 0.25 * x_1 + 0.75 * x_2 + rnorm(n, 0, 1) > 0),
  outcome = 2 * treatment + rnorm(n, 0, 1)
)
dat

## # A tibble: 1,000 x 4
##       x_1    x_2 treatment outcome
##     <dbl>  <dbl>     <dbl>   <dbl>
##  1 -0.554  1.57          1  2.65  
##  2 -0.154  0.949         0  0.0561
##  3  0.138  2.42          1  1.83  
##  4  0.668  1.36          0 -0.845 
##  5  3.11   2.76          1  1.46  
##  6 -0.151  0.683         0 -0.0211
##  7  1.01  -0.414         0  0.317 
##  8 -0.114  0.856         1  3.35  
##  9  2.66   1.23          1  2.41  
## 10  2.96   2.53          1  2.73  
## # ... with 990 more rows
…
